{
  "formatVersion": 1,
  "database": {
    "version": 1,
    "identityHash": "f8a5efc6971bd41260054df4c84f2a32",
    "entities": [
      {
        "tableName": "Movie",
        "createSql": "CREATE TABLE IF NOT EXISTS `${TABLE_NAME}` (`id` TEXT NOT NULL, `trackName` TEXT NOT NULL, `artWorkUrl` TEXT NOT NULL, `price` TEXT NOT NULL, `genre` TEXT NOT NULL, `description` TEXT NOT NULL, PRIMARY KEY(`id`))",
        "fields": [
          {
            "fieldPath": "id",
            "columnName": "id",
            "affinity": "TEXT",
            "notNull": true
          },
          {
            "fieldPath": "trackName",
            "columnName": "trackName",
            "affinity": "TEXT",
            "notNull": true
          },
          {
            "fieldPath": "artWorkUrl",
            "columnName": "artWorkUrl",
            "affinity": "TEXT",
            "notNull": true
          },
          {
            "fieldPath": "price",
            "columnName": "price",
            "affinity": "TEXT",
            "notNull": true
          },
          {
            "fieldPath": "genre",
            "columnName": "genre",
            "affinity": "TEXT",
            "notNull": true
          },
          {
            "fieldPath": "description",
            "columnName": "description",
            "affinity": "TEXT",
            "notNull": true
          }
        ],
        "primaryKey": {
          "columnNames": [
            "id"
          ],
          "autoGenerate": false
        },
        "indices": [],
        "foreignKeys": []
      }
    ],
    "views": [],
    "setupQueries": [
      "CREATE TABLE IF NOT EXISTS room_master_table (id INTEGER PRIMARY KEY,identity_hash TEXT)",
      "INSERT OR REPLACE INTO room_master_table (id,identity_hash) VALUES(42, 'f8a5efc6971bd41260054df4c84f2a32')"
    ]
  }
}